[
  {
    "profile_id": 1,
    "id": 1,
    "name": "Aarhus University",
    "title": "Logistics & Supply Chain Management",
    "start_date": "2015-08",
    "end_date": "2016-04"
  },
  {
    "profile_id": 1,
    "id": 2,
    "name": "Oregon State University",
    "title": "Economics, Exchange",
    "start_date": "2012-12",
    "end_date": "2012-09"
  },
  {
    "profile_id": 1,
    "id": 3,
    "name": "Aarhus University",
    "title": "Economics & Business Administration",
    "start_date": "2010-08",
    "end_date": "2013-06"
  },
  {
    "profile_id": 1,
    "id": 4,
    "name": "Aarhus Business College",
    "title": "IT & Economics",
    "start_date": "2006-08",
    "end_date": "2009-06"
  }
]
